en,es
Going an entire day without masturbating.,Estar un día entero sin masturbarse.
Destroying the evidence.,Borrar la evidencia.
The gays.,Los gays.
A bird that shits human turds.,Un pato que caga truños humanos.
Spending lots of money.,Gastar mucho dinero.
Fucking the weatherman on live television.,Follarse al hombre del tiempo en vivo.
Fisting.,Fisting.
How amazing it is to be on mushrooms.,Lo increíble que es estar drogado.
A crucifixion.,Una crucifixión.
Mom.,Mamá.
Flesh-eating bacteria.,Una bacteria come carne.
72 virgins.,72 vírgenes.
Stalin.,Stalin.
Bees?,¿Abejas?
My bright pink fuckhole.,Mi ano rosa y brillante.
Grave robbing.,Saqueo de tumbas.
My machete.,Mi machete.
Converting to Islam.,Convertirse al Islam.
Some kind of bird man.,Una especie de hombre pájaro.
Having a penis.,Tener un pene.
Being awesome at sex.,Ser increíble al follar.
A PowerPoint presentation.,Una presentación de PowerPoint.
Letting everyone down.,Decepcionar a todo el mundo.
The American Dream.,El sueño Americano.
German Chancellor Angela Merkel.,La canciller alemana Angela Merkel.
An evil man in evil clothes.,Un hombre malvado en ropa malvada.
A big black dick.,Una gran polla negra.
A slightly shittier parallel universe.,Un universo paralelo ligeramente más mierda.
Flying sex snakes.,Sexoserpientes voladoras.
A saxophone solo.,Un solo de saxofón.
Robert Downey Jr.,Robert Downey Jr.
Cock.,Polla.
Some really fucked-up shit.,Una mierda muy chunga.
Seeing what happens when you lock people in a room with hungry seagulls.,Ver que ocurre cuando encierras a gente en una habitación con gaviotas hambrientas.
Itchy pussy.,Coño picante.
Three dicks at the same time.,Tres pollas a la vez.
My first kill.,Mi primer asesinato.
A windmill full of corpses.,Un molino de viento lleno de cadáveres.
Sitting on my face and telling me I’m garbage.,Sentarte en mi cara y decirme que soy basura.
Sexy pillow fights.,Peleas de almohadas sexy.
Fear itself.,El miedo en si mismo.
A stray pube.,Mi pubertad perdida.
A snapping turtle biting the tip of your penis.,Una tortuga mordedora mordiendo la punta de tu pene.
The Black Death.,La peste negra.
Walking in on Dad peeing in Mom’s mouth.,Encontrarse a papá meándose en la boca de mamá.
Not contributing to society in any meaningful way.,No contribuir a la sociedad de ninguna manera significativa.
The Russians.,Los rusos.
Your mom.,Tu madre.
Masturbating in a robe like a rich person.,Masturbarse en una túnica como una persona rica.
The Pope.,El papa.
Self-loathing.,Auto-odiarse
Whining like a little bitch.,Quejarse como una putita.
Eating a hard boiled egg out of my husband’s asshole.,Comerse un huevo duro salido del culo de mi marido.
Basic human decency.,Decencia humana básica.
Doing it in the butt.,Hacerlo por el culo.
Dwayne “The Rock” Johnson.,Dwayne “La Roca” Johnson.
A micropig wearing a tiny raincoat and booties.,Un microcerdo con un diminuto impermeable y botines.
Sniffing and kissing my feet.,Olisquear y besar mis pies.
Going night-night.,Irse a mimir.
Repression.,Represión.
A cop who is also a dog.,Un policía que también es un perro.
Full frontal nudity.,Desnudez total frontal.
My little boner.,Mi pequeña erección.
The hiccups.,El hipo.
Heroin.,Heroína.
Police brutality.,Brutalidad policial.
Reverse cowgirl.,Vaquera al revés.
A sweet spaceship.,Una dulce nave espacial.
Passive-aggressive Post-it notes.,Notas Pósit pasivo-agresivas.
Eating an albino.,Comerse un albino.
Consensual sex.,Sexo consensual.
Pooping back and forth. Forever.,Cagarse para adelante y para atrás. Para siempre.
The Devil himself.,El mismísimo diablo.
Kim Jong-un.,Kim Jong-un.
Getting drugs off the street and into my body.,Sacar las drogas de la calle y metermelas en el cuerpo.
Covering myself with Parmesan cheese and chili flakes because I am pizza.,Cubrirme en queso parmesano y trozos de chile porque soy una pizza.
White power.,Poder blanco.
Making the penises kiss.,Hacer que los penes se besen.
Gloryholes.,Gloryholes.
Fading away into nothingness.,Desvanecerse en la nada.
Being a hideous beast that no one could love.,Ser una bestia horrible que nadie podría amar.
Hot wet my pussy is.,Como de caliente está mi coño.
Nunchuck moves.,Movimientos nunchuk.
Our dildo.,Nuestro dildo.
Grabbing my man by his love handles and fucking his big ass.,Coger a un hombre por su cadera y follar su gran culo.
An older woman who knows her way around the penis.,Una mujer mayor que es muy familiar con la polla.
Michael Jackson.,Michael Jackson.
My boss.,Mi jefe.
Miley Cyrus.,Miley Cyrus.
My ugly face and bad personality.,Una cara fea y mala personalidad.
The entire internet.,Todo internet.
Dick fingers.,Manos de mantequilla.
The prostate.,La próstata.
My sex life.,Mi vida sexual.
"Soft, kissy missionary sex.",Suave y amoroso sexo misionario.
Throwing grapes at a man until he loses touch with reality.,Tirarle uvas a una persona hasta que pierda el contacto con la realidad.
A middle-aged man on roller skates.,Un hombre de mediana edad en patines.
Harry Potter erotica.,Una erótica de Harry Potter.
Gandhi.,Gandhi.
The Force.,La Fuerza.
Extremely tight jeans.,Vaqueros extremadamente ajustados.
A really cool hat.,Un sombrero muy guay.
Pumping out a baby every nine months.,Parir un bebé cada nueve meses.
Bullshit.,Puta mierda.
"Running naked through a mall, pissing and shitting everywhere.","Correr desnudo por un centro comercial, meándose y cagándose por todas partes."
The milkman.,El lechero.
Sniffing glue.,Esnifar pegamento.
The Dalai Lama,El Dalai Lama
Puppies!,¡Cachorritos!
The miracle of childbirth.,El milagro de nacer.
Scrotum tickling.,Cosquillas en el escroto.
Donald J. Trump.,Donald J. Trump.
Having sex on top of a pizza.,Tener sexo sobre una pizza.
All the dudes I’ve fucked.,Todos los tios que me he follado.
Many bats.,Muchos bates.
Holding down a child and farting all over him.,Agarrar un niño y tirarme pedos al rededor de el.
A low standard of living.,Un bajo estándar de vida.
The human body.,El cuerpo humano.
Darth Vader.,Darth Vader.
A salty surprise.,Correrse sin avisar.
Grandpa’s ashes.,Las cenizas del abuelo.
Terrorists.,Terroristas.
Hot cheese.,Queso caliente.
Getting crushed by a vending machine.,Ser aplastado por una máquina expendedora.
Pretending to care.,Pretender que me importa.
Dead babies.,Bebés muertos.
Poor life choices.,Pésimas decisiones en la vida.
Listening to her problems without trying to solve them.,Escuchar sus problemas sin intentar resolverlos.
Dead birds everywhere.,Pájaros muertos por todas partes
Chunks of dead backpacker.,Trozos de mochilero.
Denying climate change.,Negar el cambio climático.
Being a witch.,Siendo una bruja.
"Sweet, sweet vengeance.","Dulce, dulce venganza."
Hurting those closest to me.,Hiriendo a aquellos cercanos a mi.
Kanye West.,Kanye West.
An ass disaster.,Un desastre anal.
Hope.,Esperanza.
Jerking off into a pool of children’s tears.,Masturbarse en una piscina de lágrimas de niños.
A thermonuclear detonation.,Una detonación termonuclear.
The wifi password.,La contraseña del wifi.
Jesus.,Jesús.
Literally eating shit.,Comer mierda literalmente.
Seeing Grandma naked.,Ver a la abuela desnuda
Suicidal thoughts.,Pensamientos suicidas.
Rising from the grave.,Levantarse de la tumba.
An old guy who’s almost dead.,Un hombre viejo que esta casi muerto.
A monkey smoking a cigar.,Un mono fumándose un cigarrillo.
Bearing many strong sons to work the potato fields.,Llevar a varios hijos fuertes a trabajar en los campos de patatas.
Vomiting seafood and bleeding anally.,Vomitar mariscos y sangrar analmente.
Viagra. TKTK,Viagra. (Articulo Incompleto)
"Actually getting shot, for real.","Ser disparado, de verdad."
Wet butt.,Culo mojado.
An endless stream of diarrhea.,Una corriente sin fin de diarrea
A sorry excuse for a father.,Un mal ejemplo de padre.
Edible underwear.,Ropa interior comestible.
RoboCop.,RoboCop.
Making a friend.,Hacer un amigo.
Elderly Japanese men.,Ancianos japoneses.
Slapping a racist old lady.,Abofetear a una vieja racista.
A shark!,¡Un tiburón!
Shutting the fuck up.,Cerrar la puta boca.
Ominous background music.,Música de fondo ominosa.
One titty hanging out.,Una teta asomando.
David Bowie flying in on a tiger made of lightning.,David Bowie viniendo volando en un tigre hecho de rayo.
The past.,El pasado.
"Graphic violence, adult language, and some sexual content.","Violencia gráfica, lenguaje adulto, y algo de contenido sexual."
Breaking out into song and dance.,Salir a cantar y bailar.
Erectile dysfunction.,Disfunción eréctil.
Jobs.,Trabajos.
Getting fingered.,Meterte un dedo por el culo.
The Gulags.,Los Gulags.
Unfathomable stupidity.,Una estupidez insondable.
Spectacular abs.,Abdominales espectaculares.
How far I can get my own penis up my butt.,Hasta donde me puedo meter mi propio pene en mi culo.
The World of Warcraft.,The World of Warcraft.
"The crazy, ball-slapping sex your parents are having right now.",El sexo salvaje que están teniendo tus padres ahora mismo.
My soul.,Mi alma.
Being a woman.,Ser una mujer.
One Ring to rule them all.,Un anillo para gobernarlos a todos.
My fat daughter.,Mi hija gorda.
Multiple stab wounds.,Múltiples puñaladas.
Rich people.,Gente rica.
Genuine human connection.,Conexión humana genuina.
Daddy issues.,Problemas de padre.
Permanent Orgasm-Face Disorder.,Desorden permanente de cara-orgasmo.
Establishing dominance.,Establecer dominancia.
Inappropriate yodeling.,Cantar a la tirolesa pero mal.
Sex with animals.,Sexo con animales.
Not vaccinating my children because I am stupid.,No vacunar a mis hijos porque soy idiota.
Drinking out of the toilet and eating garbage.,Beber el agua del retrete y comer basura.
A sad fat dragon with no friends.,Un triste dragón gordo sin amigos.
COVID-19.,COVID-19.
Doing the right thing.,Hacer lo correcto.
The baby that ruined my pussy.,El bebé que arruinó mi coño.
Slavs.,Eslavos.
The prunes I’ve been saving for you in my armpits.,Las ciruelas secas que te he estado guardando en mis sobacos.
Women voting.,Mujeres votando.
A time travel paradox.,Una paradoja de viajes en el tiempo.
A vagina that leads to another dimension.,Una vagina que lleva a otra dimensión.
Touching a pug right on his penis.,Tocar a un pug en su pene.
"Loki, the trickster god.","Loki, el dios tramposo."
Fiery poops.,Mierdas ardientes.
Mooing.,Mugiendo.
A bitch slap.,Una bofetada en la cara.
Poopy diapers.,Pañales cagados.
Being able to talk to elephants.,Poder hablar con elefantes.
Magnets.,Imanes.
A fart so powerful that it wakes the giants from their thousand-year slumber.,Un cuesco tan poderoso que despierta a los gigantes de su sueño milenario.
A supportive touch on the lower back.,Un toque de apoyo en la espalda.
Daniel Radcliffe’s delicious asshole.,El delicioso culo de Daniel Radcliffe.
The land of chocolate.,La tierra de chocolate.
Puberty.,Pubertad.
Solving problems with violence.,Arreglar problemas con violencia.
Poverty.,Pobreza.
Our first chimpanzee Prime Minister.,Nuestro primer ministro chimpancé.
One trillion dollars.,1 billón de euros.
Having anuses for eyes.,Tener anos por ojos.
Foreskin.,Prepucio.
How bad my daughter fucked up her dance recital.,Que mal la cagó mi hija en su recital de baile.
Getting really high.,Ponerse muy colocado.
All of this blood.,Toda esta sangre.
Dark and mysterious forces beyond our control.,Oscuras y misteriosas fuerzas mas allá de nuestro control.
The pirate’s life.,La vida del pirata.
Emerging from the sea and rampaging through Tokyo.,Emergiendo del mar y arrasando Tokio.
Pac-Man uncontrollably guzzling cum.,Pac-Man engullendo semen descontroladamente.
A tiny horse.,Un poni.
Women in yogurt commercials.,Mujeres en los anuncios de yogur.
German dungeon porn.,Porno alemán de mazmorras.
Spontaneous human combustion.,Combustión humana espontánea.
Penis breath.,Respirar por el pene.
Fragile masculinity.,Fragilidad masculina.
A man on the brink of orgasm.,Un hombre al borde del orgasmo.
"A ball of earwax, semen, and toenail clippings.","Una bola de cera de orejas, semen y uñas cortadas."
The arrival of the pizza.,La llegada de la pizza.
Fucking my sister.,Follarse a mi hermana.
Explaining how vaginas work.,Explicar como funciona una vagina.
Hot brown piss.,Meado marrón y caliente
A lifetime of sadness.,Toda una vida de tristeza.
Vomiting mid-blowjob.,Vomitar en mitad de una felación.
My relationship status.,El estado de mi relación.
Invading Poland.,Invadir Polonia.
Pictures of boobs.,Imágenes de tetas.
Nipple blades.,Espadas pezón.
The only gay person in a hundred kilometers.,El único gay en cien kilómetros.
Dad’s funny balls.,Las pelotas divertidas de papi.
Drinking alone.,Beber solo.
Me time.,Tiempo de yo.
Ripping open a man’s chest and pulling out his still-beating heart.,Extirpar el corazón aún palpitante del pecho de una persona.
Not having sex.,No tener sexo.
Ghosts.,Fantasmas.
Pissing in my thirsty mouth.,Mearme en mi sedienta boca.
Necrophilia.,Necrofilia.
Not wearing pants.,No llevar pantalones.
An unwanted pregnancy.,Un embarazo no deseado.
Lady Gaga.,Lady Gaga.
A micropenis.,Un micropene
Arnold Schwarzenegger.,Arnold Schwarzenegger.
Some douche with an acoustic guitar.,Un gilipollas con una guitarra acústica
Slaughtering innocent civilians.,Sacrificar civiles inocentes.
A horde of Vikings.,Una horda de Vikingos.
Brutal austerity.,Austeridad brutal.
Balls.,Pelotas.
Shitting out a screaming face.,Cagar una cara gritando.
An unstoppable wave of fire ants.,Una imparable ola de hormigas rojas.
Goblins.,Goblins.
Pixelated bukkake.,Un bukkake pixelado.
Stinking like shit.,Apestar a mierda.
The Holy Bible.,La Sagrada Biblia.
Blowing my boyfriend so hard he shits.,Chupándosela a mi novio tan fuerte que se cagó.
Being a busy adult with many important things to do.,Ser un adulto ocupado con muchas cosas importantes que hacer.
My balls on your face.,Mis bolas en tu cara.
Explosions.,Explosiones.
Daddy’s belt.,El cinturón de papi.
Another shot of morphine.,Otra inyección de morfina.
Wearing an octopus for a hat.,Llevar un pulpo como sombrero.
Having shotguns for legs.,Tener escopetas por piernas.
Casually suggesting a threesome.,Sugerir casualmente hacer un trío
Men.,Hombres.
My abusive boyfriend who really isn’t so bad once you get to know him.,Mi novio maltratador que en realidad no es tan malo una vez que lo conoces.
The flute.,La flauta.
Tongue.,Lengua.
My vagina.,Mi vagina.
PTSD.,Trastorno de estrés postraumático.
Exactly what you’d expect.,Exactamente lo que te esperabas.
Being fabulous.,Ser fabuloso.
Bananas.,Plátanos.
Seeing my father cry.,Ver a mi padre llorar.
AXE Body Spray.,Aerosol corporal AXE.
Panda sex.,Sexo de pandas
Agriculture.,Agricultura
How awesome it is to be white.,Lo increíble que es ser blanco.
Being a dinosaur.,Ser un dinosaurio.
The clitoris.,El clítoris.
Dying.,Morir.
Nazis.,Nazis.
Being stupid and fat.,Ser idiota y gordo.
The Blood of Christ.,La sangre de cristo.
Disco fever.,Fiebre de discoteca.
Pooping in a laptop and closing it.,Cagarse en un portátil y cerrarlo.
A pyramid of severed heads.,Una pirámide de cabezas cortadas.
Having big dreams but no realistic way to achieve them.,Tener grandes sueños pero no una forma realista de lograrlos.
Buying the right clothes to be cool.,Comprar la ropa correcta para ser guay.
Existing.,Existir.
Saying “I love you.”,Decir “Te amo.”
World peace.,Paz mundial.
"A good, strong gorilla.",Un buen y fuerte gorila.
Alcoholism.,Alcoholismo.
Lactation.,Lactancia.
Penis envy.,Envidia de pene.
Spaniards.,Españoles.
Self-flagellation.,Autoflagelación
Vladimir Putin.,Vladimir Putin.
Meth.,Metanfetamina.
Cumming deep inside my best bro.,Correrse profundamente en mi mejor amigo.
Judging everyone.,Juzgar a todo el mundo.
Oprah.,Oprah.
Doing crimes.,Cometer crímenes
The true meaning of Christmas.,El verdadero significado de la navidad.
A toilet.,Un retrete.
Science.,Ciencia.
The Patriarchy.,El patriarcado.
Friendly fire.,Fuego amigo.
A much younger woman.,Una mujer mucho mas joven.
My cheating son-of-a-bitch husband.,Mi marido hijo de puta que me pone los cuernos.
A bleached asshole.,Un ano blanqueado.
Gandalf.,Gandalf.
An erection that lasts longer than four hours.,Una erección de más de cuatro horas.
Having a stroke.,Tener un derrame cerebral.
Indescribable loneliness.,Soledad indescriptible.
Teenage pregnancy.,Embarazo adolescente.
An Oedipus complex.,Un complejo de Edipo.
Soup that is too hot.,Sopa que está muy caliente.
Sudden Poop Explosion Disease.,Enfermedad de explotar mierda repentina.
Bitches who knit.,Putas que tejen.
"The cool, refreshing taste of Pepsi TKTK.",El guay y refrescante sabor de Pepsi (Articulo Incompleto).
The economy.,La economía.
Slender toes begging to be sucked.,Delgados dedos de los pies suplicando ser chupados.
Making a pouty face.,Haciendo una cara triste y enojada.
Staring at a painting and doing “hmmmmmmm...”,Mirar fijamente a un cuadro y decir “hmmmmmmm…”
White people.,Gente blanca.
Flying robots that kill people.,Robots asesinos voladores.
A bag of magic beans.,Una bolsa de judías mágicas.
Tripping balls.,Estar alucinando pepinos.
Nothing.,Nada.
Licking things to claim them as your own.,Chupar cosas y luego decir que son tuyas.
Getting cummed on.,Ser corrido encima.
Samuel L. Jackson.,Samuel L. Jackson.
Nicki Minaj.,Nicki Minaj.
Emotions.,Emociones.
Announcing that I am about to cum.,Anunciar que estoy a punto de correrme.
A man in yoga pants with a ponytail and feather earrings.,Un hombre en pantalones de yoga con una coleta y aretes de pluma.
Blood farts.,Pedos de sangre.
Dead parents.,Padres muertos.
Expecting a burp and vomiting on the floor.,Esperarse un eructo y vomitar en el suelo.
Weapons-grade plutonium.,Plutonio apto para armas.
Old-people smell.,El olor de los ancianos.
Flightless birds.,Pájaros que no vuelan.
The boners of the elderly.,Las erecciones de los ancianos.
A fetus.,Un feto.
The bombing of Nagasaki.,El bombardeo de Nagasaki.
Explaining the difference between sex and gender.,Explicar la diferencia entre sexo y género.
Having sex for the first time.,Tener sexo por primera vez.
Tom Cruise.,Tom Cruise.
Multiple orgasms.,Múltiples orgasmos.
Being Black.,Ser negro.
A surprising amount of hair.,Una sorprendente cantidad de pelo.
Being on fire.,Estar en llamas.
All my friends dying.,Todos mis amigos muriendo.
Strong female characters.,Personajes fuertes femeninos.
"My father, who died when I was seven.","Mi padre, que murió cuando tenía once años."
Crazy hot cousin sex.,Sexo alocado entre primos.
Chainsaws for hands.,Motosierras por manos.
My Black ass.,Mi culo negro.
BATMAN!,¡BATMAN!
A sad handjob.,Una paja triste.
Keanu Reeves.,Keanu Reeves.
An AK-47.,Un AK-47.
Stockholm Syndrome.,Síndrome de Estocolmo.
Masturbating.,Masturbarse.
Barack Obama.,Barack Obama.
Winking at old people.,Guiñarle el ojo a los ancianos.
Powerful thighs.,Muslos poderosos.
Therapy.,Terapia.
Dining with cardboard cutouts of the cast of Friends.,Cenar con figuras de cartón tamaño real del reparto de Friends.
Used panties.,Bragas usadas.
Menstrual rage.,Rabia menstrual.
Not reciprocating oral sex.,Sexo oral no recíproco.
Leprosy.,Lepra.
Grandma.,Abuela.
Horse meat.,Carne de caballo.
Homeless people.,Gente sin hogar.
AIDS.,SIDA.
Hot people.,Gente caliente.
My genitals.,Mis genitales.
Accepting the way things are.,Aceptar las cosas como son.
Poor people.,Gente pobre.
Farting and walking away.,Tirarse un pedo e irse.
My ex-wife.,Mi ex-mujer.
Pulling out.,Sacar el pene antes de eyacular.
The inevitable heat death of the universe.,La inevitable muerte térmica del universo.
Mutually assured destruction.,Destrucción mutua asegurada.
The screams... The terrible screams.,Los gritos... Los gritos terribles.
The violation of our most basic human rights.,Una violación de los derechos humanos más básicos.
The placenta.,La placenta.
Running out of semen.,Quedarse sin semen.
Fake tits.,Tetas postizas.
Racism.,Racismo.
Dying alone and in pain.,Morir solo y con dolor.
Chemical weapons.,Armas químicas.
Gladiatorial combat.,Combate de gladiadores.
Maintaining eye contact with a grown man while he takes a shit.,Mantener contacto visual con un hombre mientras está cagando.
Heartwarming orphans.,Huérfanos conmovedores.
"Sneezing, farting, and cumming at the same time.","Estornudar, tirarse un pedo y correrse a la vez."
Friction.,Fricción.
Screaming like a maniac.,Gritar como un loco.
Me.,Yo.
Raptor attacks.,Ataques de velociraptor.
Justin Bieber.,Justin Bieber.
Estrogen.,Estrógeno.
"Her Majesty, Queen Elizabeth II.","Su Majestad, la Reina Isabel II."
A homoerotic volleyball montage.,Un montaje homoerótico de voleibol
Peeing a little bit.,Mearse un poco.
A bowl of mayonnaise and human teeth.,Un cuenco de mayonesa y dientes humanos.
Children on leashes.,Niños con correas.
Free samples.,Muestras gratis.
Making my man squirt.,Hacer que mi hombre se corra.
Man meat.,Carne humana.
Silence.,Silencio.
My inner demons.,Mis demonios internos.
Huge biceps.,Bíceps enormes.
Land mines.,Minas terrestres.
Santa Claus.,Santa Claus.
Dick pics.,Fotopollas.
Telling a shit story that goes nowhere.,Contar una historia sobre heces que no va a ninguna parte.
Laying an egg.,Poner un huevo.
Memes.,Memes.
Murder.,Asesinato.
More elephant cock than I bargained for.,Más polla de elefante de la que negocié.
A good sniff.,Una buena olisqueada.
Wiping her butt.,Limpiar su culo.
Being white.,Ser blanco.
Filling my son with spaghetti.,Llenar a mi hijo con espaguetis.
Preteens.,Preadolescentes.
An army of skeletons.,Un ejército de esqueletos.
Still being a virgin.,Aún ser virgen.
Bitches.,Putas.
Gay aliens.,Alienígenas gay.
A little boy who won’t’ shut the fuck about dinosaurs.,Un niño pequeño que no se va a callar la puta boca con los dinosaurios.
That ass.,Ese culo.
A Chinese tourist who wants something very badly but cannot communicate it.,Un turista chino que desea algo muy intensamente pero no lo puede comunicar.
Being rich.,Ser rico.
A falcon with a cap on its head.,Un halcón con una gorra en la cabeza.
Being a motherfucking sorcerer.,Ser un putísimo hechicero.
Americanization.,Americanización.
Giving birth to the Antichrist.,Dar luz al anticristo.
"50,000 volts straight to the nipples.",50.000 voltios directo a los pezones.
Selling crack to children.,Venderle crack a los niños.
Incest.,Incesto.
An octopus giving seven handjobs and smoking a cigarette.,Un pulpo haciendo siete felaciones y fumando un cigarrillo.
A disappointing birthday party.,Una fiesta de cumpleaños decepcionante.
Moral ambiguity.,Ambigüedad moral.
God.,Dios.
Your weird brother.,Tu hermano rarito.
Mediocrity.,Mediocridad.
Sperm whales.,Mujeres gordas que les gusta ser corridas encima.
Drowning the kids in the bathtub.,Ahogar a los niños en la bañera.
Sexual humiliation.,Humillación sexual.
Taking a man’s eyes and balls out and putting his eyes where his balls go and then his balls in the eye holes.,Sacarle los ojos y los cojones a un hombre y poner sus ojos donde van sus cojones y luego sus cojones donde van sus ojos.
"Sorry, this content cannot be viewed in your region.","Disculpe, este contenido no puede ser visualizado en su región."
Double penetration.,Doble penetración.
Telling a shitty story that goes nowhere.,Contar una historia de mierda que no va a ninguna parte.
Tiny nipples.,Pezones pequeños.
The Big Bang.,El Big Bang.
Waiting till marriage.,Esperar hasta casarse.
A Japanese toaster you can fuck.,Una tostadora japonesa que puedes follar.
Catapults.,Catapultas.
Power.,Poder.
My collection of Japanese sex toys.,Mi colección de juguetes sexuales japoneses.
Americanization.,Americanización.
Bosnian chicken farmers.,Criadores de pollos bosnios.
Mouth herpes.,Herpes labial.
Autocannibalism.,Autocanibalismo.
A defective condom.,Un condón defectuoso.
Diversity.,Diversidad.
Cuddling.,Abrazos.
Teaching a robot to love.,Enseñar un robot a amar.
Overpowering your father.,Dominando a tu padre.
A brain tumor.,Un tumor cerebral.
Girls.,Chicas.
Italians.,Italianos.
A cat video so cute that your eyes roll back and your spine slides out of your anus.,Un video de gatitos tan mono que tus ojos dan vueltas y tu columna vertebral se desliza fuera de tu ano.
Being a dick to children.,Ser un idiota con los niños.
Living in a trashcan.,Vivir en un contenedor de basura.
Going around punching people.,Ir por ahí dándole puñetazos a la gente.
Intimacy problems.,Problemas de intimidad.
A sea of troubles.,Un mar de problemas.
Becoming a blueberry.,Convertirse en un arándano.
Sexual tension.,Tensión sexual.
The total collapse of the global financial system.,El colapso total del sistema financiero global.
Tentacle porn.,Porno de tentáculos.
Shiny objects.,Objetos brillantes.
Throwing a virgin in a volcano.,Tirar a un virgen a un volcán.
The heart of a child.,El corazón de un niño.
Ryan Gosling riding in on a white horse.,Ryan Gosling cabalgando sobre un caballo blanco.
Natural selection.,Selección natural.
Words.,Palabras.
My good bra.,Mi buen sujetador.
Kissing grandma on the forehead and turning off her life support.,Besar a la abuela en la frente y apagarle el respirador.
Sunshine and rainbows.,Rayos de sol y arcoíris.
Cards Against Humanity.,Cartas Contra la Humanidad.
